Prac Day 4
…
Question 6

Using the airlines and flights datasets, do the following, showing the output from each step:

Identify routes that more than one airline flies

multi_airline_routes <- flights %>%
  group_by(origin, dest) %>%
  summarise(num_airlines = n_distinct(carrier), .groups = "drop") %>%
  filter(num_airlines > 1)

multi_airline_routes

# A tibble: 128 × 3
   origin dest  num_airlines
   <chr>  <chr>        <int>
 1 EWR    ATL              4
 2 EWR    AUS              2
 3 EWR    BDL              2
 4 EWR    BNA              2
 5 EWR    BOS              3
 6 EWR    BWI              2
 7 EWR    CHS              2
 8 EWR    CLE              2
 9 EWR    CLT              3
10 EWR    CVG              2
# ℹ 118 more rows

For each such route, calculate the average arrival delay for each airline (exclude NAs). Find the names of these airlines.

route_delay <- flights %>%
  filter(paste(origin, dest) %in% paste(multi_airline_routes$origin, multi_airline_routes$dest)) %>%
  group_by(origin, dest, carrier) %>%
  summarise(avg_arr_delay = mean(arr_delay, na.rm = TRUE), .groups = "drop")

route_delay

# A tibble: 343 × 4
   origin dest  carrier avg_arr_delay
   <chr>  <chr> <chr>           <dbl>
 1 EWR    ATL   9E              -6.25
 2 EWR    ATL   DL              10.0 
 3 EWR    ATL   EV              19.5 
 4 EWR    ATL   UA              10.5 
 5 EWR    AUS   UA               4.28
 6 EWR    AUS   WN             -11.2 
 7 EWR    BDL   EV               6.78
 8 EWR    BDL   UA              22.6 
 9 EWR    BNA   EV              17.7 
10 EWR    BNA   WN              -2.13
# ℹ 333 more rows
For each such route, identify the airline with the worst and best average arrival delay.

best_worst_per_route <- route_delay %>%
  group_by(origin, dest) %>%
  summarise(
    best_airline = carrier[which.min(avg_arr_delay)],
    worst_airline = carrier[which.max(avg_arr_delay)],
    min_delay = min(avg_arr_delay, na.rm = TRUE),
    max_delay = max(avg_arr_delay, na.rm = TRUE),
    .groups = "drop"
  )

best_worst_per_route

# A tibble: 128 × 6
   origin dest  best_airline worst_airline min_delay max_delay
   <chr>  <chr> <chr>        <chr>             <dbl>     <dbl>
 1 EWR    ATL   9E           EV               -6.25      19.5 
 2 EWR    AUS   WN           UA              -11.2        4.28
 3 EWR    BDL   EV           UA                6.78      22.6 
 4 EWR    BNA   WN           EV               -2.13      17.7 
 5 EWR    BOS   EV           B6               -4.01       6.87
 6 EWR    BWI   WN           EV                5.95      20.1 
 7 EWR    CHS   UA           EV              -14         16.2 
 8 EWR    CLE   EV           UA               -3.71       5.97
 9 EWR    CLT   US           EV                0.920     20.5 
10 EWR    CVG   9E           EV                1.40      21.2 
# ℹ 118 more rows
…
